[
  {
    "model": "study.degree",
    "fields": {
      "title": "Бакалавриат",
      "description": ""
    }
  },
  {
    "model": "study.degree",
    "fields": {
      "title": "Магистратура",
      "description": ""
    }
  },
  {
    "model": "study.degree",
    "fields": {
      "title": "Аспирантура",
      "description": ""
    }
  },
  {
    "model": "study.degree",
    "fields": {
      "title": "Подготовительный",
      "description": ""
    }
  }
]
