[
  {
    "pk": 1,
    "model": "study.scholarship",
    "fields": {
      "start_at": "2017-09-01",
      "end_at": "2018-07-11"
    }
  },
  {
    "pk": 2,
    "model": "study.scholarship",
    "fields": {
      "start_at": "2018-09-01",
      "end_at": "2019-07-16"
    }
  },
  {
    "pk": 3,
    "model": "study.scholarship",
    "fields": {
      "start_at": "2019-09-01",
      "end_at": "2020-07-31"
    }
  }
]
