[
  {
    "model": "domitory.bedroom",
    "fields": { "beds": 5, "floor": 1, "domitory": 2 }
  },
  {
    "model": "domitory.bedroom",
    "fields": { "beds": 4, "floor": 9, "domitory": 2 }
  },
  {
    "model": "domitory.bedroom",
    "fields": { "beds": 2, "floor": 7, "domitory": 2 }
  },
  {
    "model": "domitory.bedroom",
    "fields": { "beds": 4, "floor": 8, "domitory": 1 }
  },
  {
    "model": "domitory.bedroom",
    "fields": { "beds": 3, "floor": 3, "domitory": 2 }
  },
  {
    "model": "domitory.bedroom",
    "fields": { "beds": 3, "floor": 11, "domitory": 2 }
  },
  {
    "model": "domitory.bedroom",
    "fields": { "beds": 2, "floor": 10, "domitory": 1 }
  },
  {
    "model": "domitory.bedroom",
    "fields": { "beds": 3, "floor": 5, "domitory": 1 }
  },
  {
    "model": "domitory.bedroom",
    "fields": { "beds": 5, "floor": 10, "domitory": 1 }
  },
  {
    "model": "domitory.bedroom",
    "fields": { "beds": 1, "floor": 11, "domitory": 2 }
  },
  {
    "model": "domitory.bedroom",
    "fields": { "beds": 4, "floor": 4, "domitory": 1 }
  },
  {
    "model": "domitory.bedroom",
    "fields": { "beds": 2, "floor": 1, "domitory": 2 }
  },
  {
    "model": "domitory.bedroom",
    "fields": { "beds": 2, "floor": 3, "domitory": 2 }
  },
  {
    "model": "domitory.bedroom",
    "fields": { "beds": 2, "floor": 11, "domitory": 2 }
  },
  {
    "model": "domitory.bedroom",
    "fields": { "beds": 1, "floor": 1, "domitory": 1 }
  },
  {
    "model": "domitory.bedroom",
    "fields": { "beds": 1, "floor": 11, "domitory": 2 }
  },
  {
    "model": "domitory.bedroom",
    "fields": { "beds": 5, "floor": 4, "domitory": 1 }
  },
  {
    "model": "domitory.bedroom",
    "fields": { "beds": 2, "floor": 9, "domitory": 2 }
  },
  {
    "model": "domitory.bedroom",
    "fields": { "beds": 1, "floor": 12, "domitory": 2 }
  },
  {
    "model": "domitory.bedroom",
    "fields": { "beds": 4, "floor": 12, "domitory": 1 }
  },
  {
    "model": "domitory.bedroom",
    "fields": { "beds": 5, "floor": 8, "domitory": 2 }
  },
  {
    "model": "domitory.bedroom",
    "fields": { "beds": 4, "floor": 10, "domitory": 1 }
  },
  {
    "model": "domitory.bedroom",
    "fields": { "beds": 3, "floor": 7, "domitory": 2 }
  },
  {
    "model": "domitory.bedroom",
    "fields": { "beds": 1, "floor": 2, "domitory": 1 }
  },
  {
    "model": "domitory.bedroom",
    "fields": { "beds": 1, "floor": 7, "domitory": 1 }
  },
  {
    "model": "domitory.bedroom",
    "fields": { "beds": 1, "floor": 7, "domitory": 1 }
  },
  {
    "model": "domitory.bedroom",
    "fields": { "beds": 4, "floor": 10, "domitory": 1 }
  },
  {
    "model": "domitory.bedroom",
    "fields": { "beds": 3, "floor": 8, "domitory": 1 }
  },
  {
    "model": "domitory.bedroom",
    "fields": { "beds": 1, "floor": 1, "domitory": 1 }
  },
  {
    "model": "domitory.bedroom",
    "fields": { "beds": 3, "floor": 11, "domitory": 1 }
  },
  {
    "model": "domitory.bedroom",
    "fields": { "beds": 4, "floor": 4, "domitory": 1 }
  },
  {
    "model": "domitory.bedroom",
    "fields": { "beds": 2, "floor": 5, "domitory": 1 }
  },
  {
    "model": "domitory.bedroom",
    "fields": { "beds": 3, "floor": 3, "domitory": 2 }
  },
  {
    "model": "domitory.bedroom",
    "fields": { "beds": 3, "floor": 10, "domitory": 2 }
  },
  {
    "model": "domitory.bedroom",
    "fields": { "beds": 1, "floor": 1, "domitory": 1 }
  },
  {
    "model": "domitory.bedroom",
    "fields": { "beds": 2, "floor": 4, "domitory": 2 }
  },
  {
    "model": "domitory.bedroom",
    "fields": { "beds": 3, "floor": 7, "domitory": 1 }
  },
  {
    "model": "domitory.bedroom",
    "fields": { "beds": 5, "floor": 12, "domitory": 1 }
  },
  {
    "model": "domitory.bedroom",
    "fields": { "beds": 2, "floor": 9, "domitory": 1 }
  },
  {
    "model": "domitory.bedroom",
    "fields": { "beds": 4, "floor": 8, "domitory": 2 }
  },
  {
    "model": "domitory.bedroom",
    "fields": { "beds": 4, "floor": 7, "domitory": 1 }
  },
  {
    "model": "domitory.bedroom",
    "fields": { "beds": 4, "floor": 10, "domitory": 1 }
  },
  {
    "model": "domitory.bedroom",
    "fields": { "beds": 1, "floor": 4, "domitory": 2 }
  },
  {
    "model": "domitory.bedroom",
    "fields": { "beds": 5, "floor": 3, "domitory": 2 }
  },
  {
    "model": "domitory.bedroom",
    "fields": { "beds": 2, "floor": 12, "domitory": 2 }
  },
  {
    "model": "domitory.bedroom",
    "fields": { "beds": 4, "floor": 10, "domitory": 1 }
  },
  {
    "model": "domitory.bedroom",
    "fields": { "beds": 1, "floor": 11, "domitory": 2 }
  },
  {
    "model": "domitory.bedroom",
    "fields": { "beds": 5, "floor": 12, "domitory": 1 }
  },
  {
    "model": "domitory.bedroom",
    "fields": { "beds": 4, "floor": 5, "domitory": 2 }
  },
  {
    "model": "domitory.bedroom",
    "fields": { "beds": 3, "floor": 10, "domitory": 2 }
  },
  {
    "model": "domitory.bedroom",
    "fields": { "beds": 1, "floor": 12, "domitory": 1 }
  },
  {
    "model": "domitory.bedroom",
    "fields": { "beds": 5, "floor": 11, "domitory": 1 }
  },
  {
    "model": "domitory.bedroom",
    "fields": { "beds": 4, "floor": 1, "domitory": 1 }
  },
  {
    "model": "domitory.bedroom",
    "fields": { "beds": 1, "floor": 11, "domitory": 1 }
  },
  {
    "model": "domitory.bedroom",
    "fields": { "beds": 1, "floor": 6, "domitory": 2 }
  },
  {
    "model": "domitory.bedroom",
    "fields": { "beds": 3, "floor": 10, "domitory": 1 }
  },
  {
    "model": "domitory.bedroom",
    "fields": { "beds": 5, "floor": 5, "domitory": 2 }
  },
  {
    "model": "domitory.bedroom",
    "fields": { "beds": 3, "floor": 5, "domitory": 2 }
  },
  {
    "model": "domitory.bedroom",
    "fields": { "beds": 5, "floor": 6, "domitory": 2 }
  },
  {
    "model": "domitory.bedroom",
    "fields": { "beds": 5, "floor": 6, "domitory": 1 }
  },
  {
    "model": "domitory.bedroom",
    "fields": { "beds": 2, "floor": 10, "domitory": 1 }
  },
  {
    "model": "domitory.bedroom",
    "fields": { "beds": 2, "floor": 8, "domitory": 1 }
  },
  {
    "model": "domitory.bedroom",
    "fields": { "beds": 3, "floor": 8, "domitory": 2 }
  },
  {
    "model": "domitory.bedroom",
    "fields": { "beds": 1, "floor": 9, "domitory": 2 }
  },
  {
    "model": "domitory.bedroom",
    "fields": { "beds": 5, "floor": 11, "domitory": 2 }
  },
  {
    "model": "domitory.bedroom",
    "fields": { "beds": 2, "floor": 10, "domitory": 1 }
  },
  {
    "model": "domitory.bedroom",
    "fields": { "beds": 1, "floor": 12, "domitory": 1 }
  },
  {
    "model": "domitory.bedroom",
    "fields": { "beds": 4, "floor": 12, "domitory": 1 }
  },
  {
    "model": "domitory.bedroom",
    "fields": { "beds": 1, "floor": 1, "domitory": 1 }
  },
  {
    "model": "domitory.bedroom",
    "fields": { "beds": 3, "floor": 12, "domitory": 1 }
  },
  {
    "model": "domitory.bedroom",
    "fields": { "beds": 1, "floor": 6, "domitory": 1 }
  },
  {
    "model": "domitory.bedroom",
    "fields": { "beds": 5, "floor": 7, "domitory": 2 }
  },
  {
    "model": "domitory.bedroom",
    "fields": { "beds": 5, "floor": 4, "domitory": 2 }
  },
  {
    "model": "domitory.bedroom",
    "fields": { "beds": 2, "floor": 12, "domitory": 2 }
  },
  {
    "model": "domitory.bedroom",
    "fields": { "beds": 4, "floor": 2, "domitory": 1 }
  },
  {
    "model": "domitory.bedroom",
    "fields": { "beds": 3, "floor": 9, "domitory": 2 }
  },
  {
    "model": "domitory.bedroom",
    "fields": { "beds": 2, "floor": 12, "domitory": 2 }
  },
  {
    "model": "domitory.bedroom",
    "fields": { "beds": 1, "floor": 11, "domitory": 2 }
  },
  {
    "model": "domitory.bedroom",
    "fields": { "beds": 2, "floor": 3, "domitory": 1 }
  },
  {
    "model": "domitory.bedroom",
    "fields": { "beds": 5, "floor": 10, "domitory": 2 }
  },
  {
    "model": "domitory.bedroom",
    "fields": { "beds": 2, "floor": 7, "domitory": 1 }
  },
  {
    "model": "domitory.bedroom",
    "fields": { "beds": 2, "floor": 2, "domitory": 1 }
  },
  {
    "model": "domitory.bedroom",
    "fields": { "beds": 5, "floor": 5, "domitory": 2 }
  },
  {
    "model": "domitory.bedroom",
    "fields": { "beds": 2, "floor": 12, "domitory": 1 }
  },
  {
    "model": "domitory.bedroom",
    "fields": { "beds": 1, "floor": 3, "domitory": 1 }
  },
  {
    "model": "domitory.bedroom",
    "fields": { "beds": 3, "floor": 9, "domitory": 2 }
  },
  {
    "model": "domitory.bedroom",
    "fields": { "beds": 2, "floor": 11, "domitory": 1 }
  },
  {
    "model": "domitory.bedroom",
    "fields": { "beds": 3, "floor": 10, "domitory": 1 }
  },
  {
    "model": "domitory.bedroom",
    "fields": { "beds": 1, "floor": 6, "domitory": 1 }
  },
  {
    "model": "domitory.bedroom",
    "fields": { "beds": 2, "floor": 9, "domitory": 1 }
  },
  {
    "model": "domitory.bedroom",
    "fields": { "beds": 2, "floor": 11, "domitory": 1 }
  },
  {
    "model": "domitory.bedroom",
    "fields": { "beds": 2, "floor": 8, "domitory": 2 }
  },
  {
    "model": "domitory.bedroom",
    "fields": { "beds": 5, "floor": 11, "domitory": 2 }
  },
  {
    "model": "domitory.bedroom",
    "fields": { "beds": 3, "floor": 8, "domitory": 1 }
  },
  {
    "model": "domitory.bedroom",
    "fields": { "beds": 1, "floor": 9, "domitory": 1 }
  },
  {
    "model": "domitory.bedroom",
    "fields": { "beds": 1, "floor": 9, "domitory": 1 }
  },
  {
    "model": "domitory.bedroom",
    "fields": { "beds": 4, "floor": 7, "domitory": 2 }
  },
  {
    "model": "domitory.bedroom",
    "fields": { "beds": 1, "floor": 2, "domitory": 2 }
  },
  {
    "model": "domitory.bedroom",
    "fields": { "beds": 1, "floor": 3, "domitory": 2 }
  },
  {
    "model": "domitory.bedroom",
    "fields": { "beds": 3, "floor": 1, "domitory": 1 }
  },
  {
    "model": "domitory.bedroom",
    "fields": { "beds": 2, "floor": 1, "domitory": 2 }
  },
  {
    "model": "domitory.bedroom",
    "fields": { "beds": 1, "floor": 3, "domitory": 1 }
  },
  {
    "model": "domitory.bedroom",
    "fields": { "beds": 2, "floor": 7, "domitory": 2 }
  },
  {
    "model": "domitory.bedroom",
    "fields": { "beds": 2, "floor": 10, "domitory": 2 }
  },
  {
    "model": "domitory.bedroom",
    "fields": { "beds": 2, "floor": 1, "domitory": 2 }
  },
  {
    "model": "domitory.bedroom",
    "fields": { "beds": 5, "floor": 12, "domitory": 2 }
  },
  {
    "model": "domitory.bedroom",
    "fields": { "beds": 4, "floor": 5, "domitory": 2 }
  },
  {
    "model": "domitory.bedroom",
    "fields": { "beds": 1, "floor": 12, "domitory": 2 }
  },
  {
    "model": "domitory.bedroom",
    "fields": { "beds": 3, "floor": 1, "domitory": 2 }
  },
  {
    "model": "domitory.bedroom",
    "fields": { "beds": 1, "floor": 1, "domitory": 1 }
  },
  {
    "model": "domitory.bedroom",
    "fields": { "beds": 1, "floor": 6, "domitory": 2 }
  },
  {
    "model": "domitory.bedroom",
    "fields": { "beds": 1, "floor": 7, "domitory": 1 }
  },
  {
    "model": "domitory.bedroom",
    "fields": { "beds": 5, "floor": 11, "domitory": 1 }
  },
  {
    "model": "domitory.bedroom",
    "fields": { "beds": 2, "floor": 1, "domitory": 1 }
  },
  {
    "model": "domitory.bedroom",
    "fields": { "beds": 5, "floor": 5, "domitory": 2 }
  },
  {
    "model": "domitory.bedroom",
    "fields": { "beds": 1, "floor": 6, "domitory": 1 }
  },
  {
    "model": "domitory.bedroom",
    "fields": { "beds": 4, "floor": 8, "domitory": 1 }
  },
  {
    "model": "domitory.bedroom",
    "fields": { "beds": 4, "floor": 4, "domitory": 1 }
  },
  {
    "model": "domitory.bedroom",
    "fields": { "beds": 3, "floor": 12, "domitory": 2 }
  },
  {
    "model": "domitory.bedroom",
    "fields": { "beds": 2, "floor": 12, "domitory": 2 }
  },
  {
    "model": "domitory.bedroom",
    "fields": { "beds": 4, "floor": 2, "domitory": 1 }
  },
  {
    "model": "domitory.bedroom",
    "fields": { "beds": 5, "floor": 4, "domitory": 2 }
  },
  {
    "model": "domitory.bedroom",
    "fields": { "beds": 5, "floor": 5, "domitory": 1 }
  },
  {
    "model": "domitory.bedroom",
    "fields": { "beds": 2, "floor": 2, "domitory": 1 }
  },
  {
    "model": "domitory.bedroom",
    "fields": { "beds": 4, "floor": 11, "domitory": 2 }
  },
  {
    "model": "domitory.bedroom",
    "fields": { "beds": 2, "floor": 1, "domitory": 1 }
  },
  {
    "model": "domitory.bedroom",
    "fields": { "beds": 2, "floor": 1, "domitory": 2 }
  },
  {
    "model": "domitory.bedroom",
    "fields": { "beds": 4, "floor": 7, "domitory": 2 }
  },
  {
    "model": "domitory.bedroom",
    "fields": { "beds": 4, "floor": 7, "domitory": 2 }
  },
  {
    "model": "domitory.bedroom",
    "fields": { "beds": 3, "floor": 6, "domitory": 1 }
  },
  {
    "model": "domitory.bedroom",
    "fields": { "beds": 3, "floor": 2, "domitory": 1 }
  },
  {
    "model": "domitory.bedroom",
    "fields": { "beds": 4, "floor": 12, "domitory": 2 }
  },
  {
    "model": "domitory.bedroom",
    "fields": { "beds": 3, "floor": 11, "domitory": 1 }
  },
  {
    "model": "domitory.bedroom",
    "fields": { "beds": 5, "floor": 9, "domitory": 1 }
  },
  {
    "model": "domitory.bedroom",
    "fields": { "beds": 5, "floor": 9, "domitory": 2 }
  },
  {
    "model": "domitory.bedroom",
    "fields": { "beds": 1, "floor": 9, "domitory": 2 }
  },
  {
    "model": "domitory.bedroom",
    "fields": { "beds": 2, "floor": 9, "domitory": 1 }
  },
  {
    "model": "domitory.bedroom",
    "fields": { "beds": 2, "floor": 10, "domitory": 1 }
  },
  {
    "model": "domitory.bedroom",
    "fields": { "beds": 1, "floor": 7, "domitory": 2 }
  },
  {
    "model": "domitory.bedroom",
    "fields": { "beds": 3, "floor": 4, "domitory": 1 }
  },
  {
    "model": "domitory.bedroom",
    "fields": { "beds": 1, "floor": 11, "domitory": 1 }
  },
  {
    "model": "domitory.bedroom",
    "fields": { "beds": 1, "floor": 11, "domitory": 2 }
  },
  {
    "model": "domitory.bedroom",
    "fields": { "beds": 3, "floor": 7, "domitory": 2 }
  },
  {
    "model": "domitory.bedroom",
    "fields": { "beds": 1, "floor": 2, "domitory": 1 }
  },
  {
    "model": "domitory.bedroom",
    "fields": { "beds": 1, "floor": 12, "domitory": 2 }
  },
  {
    "model": "domitory.bedroom",
    "fields": { "beds": 1, "floor": 10, "domitory": 1 }
  },
  {
    "model": "domitory.bedroom",
    "fields": { "beds": 2, "floor": 4, "domitory": 2 }
  },
  {
    "model": "domitory.bedroom",
    "fields": { "beds": 5, "floor": 3, "domitory": 1 }
  },
  {
    "model": "domitory.bedroom",
    "fields": { "beds": 2, "floor": 1, "domitory": 2 }
  },
  {
    "model": "domitory.bedroom",
    "fields": { "beds": 5, "floor": 5, "domitory": 1 }
  },
  {
    "model": "domitory.bedroom",
    "fields": { "beds": 4, "floor": 4, "domitory": 2 }
  },
  {
    "model": "domitory.bedroom",
    "fields": { "beds": 2, "floor": 7, "domitory": 2 }
  },
  {
    "model": "domitory.bedroom",
    "fields": { "beds": 4, "floor": 10, "domitory": 1 }
  },
  {
    "model": "domitory.bedroom",
    "fields": { "beds": 1, "floor": 2, "domitory": 2 }
  },
  {
    "model": "domitory.bedroom",
    "fields": { "beds": 5, "floor": 7, "domitory": 1 }
  },
  {
    "model": "domitory.bedroom",
    "fields": { "beds": 5, "floor": 12, "domitory": 2 }
  },
  {
    "model": "domitory.bedroom",
    "fields": { "beds": 3, "floor": 6, "domitory": 2 }
  },
  {
    "model": "domitory.bedroom",
    "fields": { "beds": 4, "floor": 4, "domitory": 1 }
  },
  {
    "model": "domitory.bedroom",
    "fields": { "beds": 1, "floor": 8, "domitory": 2 }
  },
  {
    "model": "domitory.bedroom",
    "fields": { "beds": 3, "floor": 1, "domitory": 1 }
  },
  {
    "model": "domitory.bedroom",
    "fields": { "beds": 5, "floor": 7, "domitory": 1 }
  },
  {
    "model": "domitory.bedroom",
    "fields": { "beds": 4, "floor": 5, "domitory": 1 }
  },
  {
    "model": "domitory.bedroom",
    "fields": { "beds": 2, "floor": 6, "domitory": 1 }
  },
  {
    "model": "domitory.bedroom",
    "fields": { "beds": 5, "floor": 12, "domitory": 2 }
  },
  {
    "model": "domitory.bedroom",
    "fields": { "beds": 4, "floor": 8, "domitory": 1 }
  },
  {
    "model": "domitory.bedroom",
    "fields": { "beds": 4, "floor": 1, "domitory": 2 }
  },
  {
    "model": "domitory.bedroom",
    "fields": { "beds": 1, "floor": 10, "domitory": 2 }
  },
  {
    "model": "domitory.bedroom",
    "fields": { "beds": 1, "floor": 1, "domitory": 2 }
  },
  {
    "model": "domitory.bedroom",
    "fields": { "beds": 4, "floor": 4, "domitory": 2 }
  },
  {
    "model": "domitory.bedroom",
    "fields": { "beds": 5, "floor": 2, "domitory": 2 }
  },
  {
    "model": "domitory.bedroom",
    "fields": { "beds": 3, "floor": 12, "domitory": 1 }
  },
  {
    "model": "domitory.bedroom",
    "fields": { "beds": 3, "floor": 2, "domitory": 2 }
  },
  {
    "model": "domitory.bedroom",
    "fields": { "beds": 5, "floor": 4, "domitory": 1 }
  },
  {
    "model": "domitory.bedroom",
    "fields": { "beds": 3, "floor": 5, "domitory": 1 }
  },
  {
    "model": "domitory.bedroom",
    "fields": { "beds": 4, "floor": 5, "domitory": 2 }
  },
  {
    "model": "domitory.bedroom",
    "fields": { "beds": 2, "floor": 10, "domitory": 2 }
  },
  {
    "model": "domitory.bedroom",
    "fields": { "beds": 1, "floor": 3, "domitory": 2 }
  },
  {
    "model": "domitory.bedroom",
    "fields": { "beds": 2, "floor": 8, "domitory": 1 }
  },
  {
    "model": "domitory.bedroom",
    "fields": { "beds": 4, "floor": 8, "domitory": 1 }
  },
  {
    "model": "domitory.bedroom",
    "fields": { "beds": 1, "floor": 4, "domitory": 2 }
  },
  {
    "model": "domitory.bedroom",
    "fields": { "beds": 3, "floor": 9, "domitory": 1 }
  },
  {
    "model": "domitory.bedroom",
    "fields": { "beds": 4, "floor": 9, "domitory": 1 }
  },
  {
    "model": "domitory.bedroom",
    "fields": { "beds": 2, "floor": 5, "domitory": 1 }
  },
  {
    "model": "domitory.bedroom",
    "fields": { "beds": 2, "floor": 5, "domitory": 2 }
  },
  {
    "model": "domitory.bedroom",
    "fields": { "beds": 2, "floor": 12, "domitory": 2 }
  },
  {
    "model": "domitory.bedroom",
    "fields": { "beds": 5, "floor": 2, "domitory": 2 }
  },
  {
    "model": "domitory.bedroom",
    "fields": { "beds": 5, "floor": 1, "domitory": 2 }
  },
  {
    "model": "domitory.bedroom",
    "fields": { "beds": 1, "floor": 7, "domitory": 1 }
  },
  {
    "model": "domitory.bedroom",
    "fields": { "beds": 5, "floor": 8, "domitory": 1 }
  },
  {
    "model": "domitory.bedroom",
    "fields": { "beds": 2, "floor": 8, "domitory": 2 }
  },
  {
    "model": "domitory.bedroom",
    "fields": { "beds": 3, "floor": 9, "domitory": 1 }
  },
  {
    "model": "domitory.bedroom",
    "fields": { "beds": 5, "floor": 11, "domitory": 1 }
  },
  {
    "model": "domitory.bedroom",
    "fields": { "beds": 2, "floor": 8, "domitory": 1 }
  },
  {
    "model": "domitory.bedroom",
    "fields": { "beds": 4, "floor": 6, "domitory": 1 }
  },
  {
    "model": "domitory.bedroom",
    "fields": { "beds": 2, "floor": 9, "domitory": 2 }
  },
  {
    "model": "domitory.bedroom",
    "fields": { "beds": 2, "floor": 3, "domitory": 2 }
  },
  {
    "model": "domitory.bedroom",
    "fields": { "beds": 5, "floor": 5, "domitory": 1 }
  },
  {
    "model": "domitory.bedroom",
    "fields": { "beds": 4, "floor": 9, "domitory": 2 }
  },
  {
    "model": "domitory.bedroom",
    "fields": { "beds": 1, "floor": 2, "domitory": 2 }
  },
  {
    "model": "domitory.bedroom",
    "fields": { "beds": 1, "floor": 1, "domitory": 2 }
  },
  {
    "model": "domitory.bedroom",
    "fields": { "beds": 1, "floor": 10, "domitory": 2 }
  },
  {
    "model": "domitory.bedroom",
    "fields": { "beds": 5, "floor": 6, "domitory": 2 }
  },
  {
    "model": "domitory.bedroom",
    "fields": { "beds": 4, "floor": 10, "domitory": 2 }
  },
  {
    "model": "domitory.bedroom",
    "fields": { "beds": 1, "floor": 6, "domitory": 1 }
  },
  {
    "model": "domitory.bedroom",
    "fields": { "beds": 4, "floor": 3, "domitory": 1 }
  },
  {
    "model": "domitory.bedroom",
    "fields": { "beds": 4, "floor": 12, "domitory": 2 }
  },
  {
    "model": "domitory.bedroom",
    "fields": { "beds": 4, "floor": 3, "domitory": 2 }
  },
  {
    "model": "domitory.bedroom",
    "fields": { "beds": 3, "floor": 11, "domitory": 2 }
  },
  {
    "model": "domitory.bedroom",
    "fields": { "beds": 5, "floor": 12, "domitory": 2 }
  },
  {
    "model": "domitory.bedroom",
    "fields": { "beds": 1, "floor": 12, "domitory": 2 }
  },
  {
    "model": "domitory.bedroom",
    "fields": { "beds": 5, "floor": 5, "domitory": 2 }
  },
  {
    "model": "domitory.bedroom",
    "fields": { "beds": 2, "floor": 6, "domitory": 2 }
  },
  {
    "model": "domitory.bedroom",
    "fields": { "beds": 3, "floor": 8, "domitory": 2 }
  },
  {
    "model": "domitory.bedroom",
    "fields": { "beds": 1, "floor": 3, "domitory": 1 }
  },
  {
    "model": "domitory.bedroom",
    "fields": { "beds": 2, "floor": 5, "domitory": 1 }
  },
  {
    "model": "domitory.bedroom",
    "fields": { "beds": 2, "floor": 3, "domitory": 1 }
  },
  {
    "model": "domitory.bedroom",
    "fields": { "beds": 1, "floor": 5, "domitory": 2 }
  },
  {
    "model": "domitory.bedroom",
    "fields": { "beds": 2, "floor": 3, "domitory": 1 }
  },
  {
    "model": "domitory.bedroom",
    "fields": { "beds": 3, "floor": 7, "domitory": 2 }
  },
  {
    "model": "domitory.bedroom",
    "fields": { "beds": 5, "floor": 4, "domitory": 1 }
  },
  {
    "model": "domitory.bedroom",
    "fields": { "beds": 4, "floor": 4, "domitory": 2 }
  },
  {
    "model": "domitory.bedroom",
    "fields": { "beds": 1, "floor": 9, "domitory": 1 }
  },
  {
    "model": "domitory.bedroom",
    "fields": { "beds": 1, "floor": 3, "domitory": 1 }
  },
  {
    "model": "domitory.bedroom",
    "fields": { "beds": 3, "floor": 8, "domitory": 2 }
  },
  {
    "model": "domitory.bedroom",
    "fields": { "beds": 5, "floor": 4, "domitory": 1 }
  },
  {
    "model": "domitory.bedroom",
    "fields": { "beds": 5, "floor": 12, "domitory": 2 }
  },
  {
    "model": "domitory.bedroom",
    "fields": { "beds": 1, "floor": 2, "domitory": 2 }
  },
  {
    "model": "domitory.bedroom",
    "fields": { "beds": 2, "floor": 4, "domitory": 1 }
  },
  {
    "model": "domitory.bedroom",
    "fields": { "beds": 1, "floor": 2, "domitory": 1 }
  },
  {
    "model": "domitory.bedroom",
    "fields": { "beds": 4, "floor": 10, "domitory": 2 }
  },
  {
    "model": "domitory.bedroom",
    "fields": { "beds": 3, "floor": 2, "domitory": 1 }
  },
  {
    "model": "domitory.bedroom",
    "fields": { "beds": 4, "floor": 7, "domitory": 1 }
  },
  {
    "model": "domitory.bedroom",
    "fields": { "beds": 2, "floor": 3, "domitory": 1 }
  },
  {
    "model": "domitory.bedroom",
    "fields": { "beds": 1, "floor": 8, "domitory": 2 }
  },
  {
    "model": "domitory.bedroom",
    "fields": { "beds": 4, "floor": 12, "domitory": 2 }
  },
  {
    "model": "domitory.bedroom",
    "fields": { "beds": 1, "floor": 10, "domitory": 1 }
  },
  {
    "model": "domitory.bedroom",
    "fields": { "beds": 2, "floor": 12, "domitory": 2 }
  },
  {
    "model": "domitory.bedroom",
    "fields": { "beds": 4, "floor": 11, "domitory": 2 }
  },
  {
    "model": "domitory.bedroom",
    "fields": { "beds": 5, "floor": 7, "domitory": 1 }
  },
  {
    "model": "domitory.bedroom",
    "fields": { "beds": 2, "floor": 8, "domitory": 2 }
  },
  {
    "model": "domitory.bedroom",
    "fields": { "beds": 3, "floor": 12, "domitory": 2 }
  },
  {
    "model": "domitory.bedroom",
    "fields": { "beds": 5, "floor": 10, "domitory": 1 }
  },
  {
    "model": "domitory.bedroom",
    "fields": { "beds": 4, "floor": 8, "domitory": 1 }
  },
  {
    "model": "domitory.bedroom",
    "fields": { "beds": 3, "floor": 2, "domitory": 1 }
  },
  {
    "model": "domitory.bedroom",
    "fields": { "beds": 2, "floor": 2, "domitory": 2 }
  },
  {
    "model": "domitory.bedroom",
    "fields": { "beds": 5, "floor": 10, "domitory": 2 }
  },
  {
    "model": "domitory.bedroom",
    "fields": { "beds": 1, "floor": 12, "domitory": 1 }
  },
  {
    "model": "domitory.bedroom",
    "fields": { "beds": 1, "floor": 5, "domitory": 2 }
  },
  {
    "model": "domitory.bedroom",
    "fields": { "beds": 1, "floor": 8, "domitory": 2 }
  },
  {
    "model": "domitory.bedroom",
    "fields": { "beds": 1, "floor": 10, "domitory": 1 }
  },
  {
    "model": "domitory.bedroom",
    "fields": { "beds": 5, "floor": 10, "domitory": 2 }
  },
  {
    "model": "domitory.bedroom",
    "fields": { "beds": 2, "floor": 7, "domitory": 2 }
  },
  {
    "model": "domitory.bedroom",
    "fields": { "beds": 5, "floor": 6, "domitory": 2 }
  },
  {
    "model": "domitory.bedroom",
    "fields": { "beds": 2, "floor": 1, "domitory": 2 }
  },
  {
    "model": "domitory.bedroom",
    "fields": { "beds": 4, "floor": 11, "domitory": 2 }
  },
  {
    "model": "domitory.bedroom",
    "fields": { "beds": 2, "floor": 6, "domitory": 2 }
  },
  {
    "model": "domitory.bedroom",
    "fields": { "beds": 5, "floor": 5, "domitory": 1 }
  },
  {
    "model": "domitory.bedroom",
    "fields": { "beds": 3, "floor": 8, "domitory": 2 }
  },
  {
    "model": "domitory.bedroom",
    "fields": { "beds": 2, "floor": 11, "domitory": 1 }
  },
  {
    "model": "domitory.bedroom",
    "fields": { "beds": 1, "floor": 7, "domitory": 1 }
  },
  {
    "model": "domitory.bedroom",
    "fields": { "beds": 3, "floor": 8, "domitory": 1 }
  },
  {
    "model": "domitory.bedroom",
    "fields": { "beds": 2, "floor": 7, "domitory": 1 }
  },
  {
    "model": "domitory.bedroom",
    "fields": { "beds": 5, "floor": 7, "domitory": 1 }
  },
  {
    "model": "domitory.bedroom",
    "fields": { "beds": 2, "floor": 3, "domitory": 2 }
  },
  {
    "model": "domitory.bedroom",
    "fields": { "beds": 1, "floor": 5, "domitory": 1 }
  },
  {
    "model": "domitory.bedroom",
    "fields": { "beds": 1, "floor": 7, "domitory": 1 }
  },
  {
    "model": "domitory.bedroom",
    "fields": { "beds": 5, "floor": 10, "domitory": 2 }
  },
  {
    "model": "domitory.bedroom",
    "fields": { "beds": 3, "floor": 6, "domitory": 2 }
  },
  {
    "model": "domitory.bedroom",
    "fields": { "beds": 5, "floor": 12, "domitory": 2 }
  },
  {
    "model": "domitory.bedroom",
    "fields": { "beds": 2, "floor": 11, "domitory": 1 }
  },
  {
    "model": "domitory.bedroom",
    "fields": { "beds": 4, "floor": 10, "domitory": 2 }
  },
  {
    "model": "domitory.bedroom",
    "fields": { "beds": 5, "floor": 11, "domitory": 2 }
  },
  {
    "model": "domitory.bedroom",
    "fields": { "beds": 2, "floor": 4, "domitory": 2 }
  },
  {
    "model": "domitory.bedroom",
    "fields": { "beds": 4, "floor": 4, "domitory": 1 }
  },
  {
    "model": "domitory.bedroom",
    "fields": { "beds": 5, "floor": 8, "domitory": 2 }
  },
  {
    "model": "domitory.bedroom",
    "fields": { "beds": 1, "floor": 11, "domitory": 2 }
  },
  {
    "model": "domitory.bedroom",
    "fields": { "beds": 5, "floor": 4, "domitory": 1 }
  },
  {
    "model": "domitory.bedroom",
    "fields": { "beds": 3, "floor": 2, "domitory": 2 }
  },
  {
    "model": "domitory.bedroom",
    "fields": { "beds": 2, "floor": 8, "domitory": 1 }
  },
  {
    "model": "domitory.bedroom",
    "fields": { "beds": 4, "floor": 2, "domitory": 2 }
  },
  {
    "model": "domitory.bedroom",
    "fields": { "beds": 1, "floor": 6, "domitory": 1 }
  },
  {
    "model": "domitory.bedroom",
    "fields": { "beds": 3, "floor": 10, "domitory": 2 }
  },
  {
    "model": "domitory.bedroom",
    "fields": { "beds": 4, "floor": 1, "domitory": 1 }
  },
  {
    "model": "domitory.bedroom",
    "fields": { "beds": 5, "floor": 7, "domitory": 2 }
  },
  {
    "model": "domitory.bedroom",
    "fields": { "beds": 5, "floor": 12, "domitory": 1 }
  },
  {
    "model": "domitory.bedroom",
    "fields": { "beds": 1, "floor": 4, "domitory": 2 }
  },
  {
    "model": "domitory.bedroom",
    "fields": { "beds": 4, "floor": 11, "domitory": 2 }
  },
  {
    "model": "domitory.bedroom",
    "fields": { "beds": 1, "floor": 3, "domitory": 2 }
  },
  {
    "model": "domitory.bedroom",
    "fields": { "beds": 4, "floor": 7, "domitory": 2 }
  },
  {
    "model": "domitory.bedroom",
    "fields": { "beds": 2, "floor": 10, "domitory": 2 }
  },
  {
    "model": "domitory.bedroom",
    "fields": { "beds": 2, "floor": 6, "domitory": 2 }
  },
  {
    "model": "domitory.bedroom",
    "fields": { "beds": 1, "floor": 2, "domitory": 2 }
  },
  {
    "model": "domitory.bedroom",
    "fields": { "beds": 5, "floor": 1, "domitory": 1 }
  },
  {
    "model": "domitory.bedroom",
    "fields": { "beds": 1, "floor": 7, "domitory": 2 }
  },
  {
    "model": "domitory.bedroom",
    "fields": { "beds": 1, "floor": 5, "domitory": 2 }
  },
  {
    "model": "domitory.bedroom",
    "fields": { "beds": 1, "floor": 4, "domitory": 1 }
  },
  {
    "model": "domitory.bedroom",
    "fields": { "beds": 1, "floor": 12, "domitory": 1 }
  },
  {
    "model": "domitory.bedroom",
    "fields": { "beds": 5, "floor": 10, "domitory": 1 }
  },
  {
    "model": "domitory.bedroom",
    "fields": { "beds": 1, "floor": 1, "domitory": 2 }
  },
  {
    "model": "domitory.bedroom",
    "fields": { "beds": 2, "floor": 1, "domitory": 2 }
  },
  {
    "model": "domitory.bedroom",
    "fields": { "beds": 1, "floor": 8, "domitory": 1 }
  },
  {
    "model": "domitory.bedroom",
    "fields": { "beds": 5, "floor": 7, "domitory": 2 }
  },
  {
    "model": "domitory.bedroom",
    "fields": { "beds": 4, "floor": 11, "domitory": 1 }
  },
  {
    "model": "domitory.bedroom",
    "fields": { "beds": 1, "floor": 12, "domitory": 1 }
  },
  {
    "model": "domitory.bedroom",
    "fields": { "beds": 3, "floor": 9, "domitory": 1 }
  },
  {
    "model": "domitory.bedroom",
    "fields": { "beds": 3, "floor": 1, "domitory": 2 }
  },
  {
    "model": "domitory.bedroom",
    "fields": { "beds": 5, "floor": 10, "domitory": 1 }
  },
  {
    "model": "domitory.bedroom",
    "fields": { "beds": 1, "floor": 12, "domitory": 1 }
  },
  {
    "model": "domitory.bedroom",
    "fields": { "beds": 5, "floor": 4, "domitory": 2 }
  },
  {
    "model": "domitory.bedroom",
    "fields": { "beds": 5, "floor": 2, "domitory": 2 }
  },
  {
    "model": "domitory.bedroom",
    "fields": { "beds": 2, "floor": 12, "domitory": 1 }
  },
  {
    "model": "domitory.bedroom",
    "fields": { "beds": 4, "floor": 11, "domitory": 1 }
  },
  {
    "model": "domitory.bedroom",
    "fields": { "beds": 2, "floor": 9, "domitory": 2 }
  },
  {
    "model": "domitory.bedroom",
    "fields": { "beds": 5, "floor": 11, "domitory": 1 }
  },
  {
    "model": "domitory.bedroom",
    "fields": { "beds": 5, "floor": 6, "domitory": 1 }
  },
  {
    "model": "domitory.bedroom",
    "fields": { "beds": 3, "floor": 4, "domitory": 2 }
  },
  {
    "model": "domitory.bedroom",
    "fields": { "beds": 3, "floor": 2, "domitory": 2 }
  },
  {
    "model": "domitory.bedroom",
    "fields": { "beds": 3, "floor": 8, "domitory": 1 }
  },
  {
    "model": "domitory.bedroom",
    "fields": { "beds": 1, "floor": 3, "domitory": 2 }
  },
  {
    "model": "domitory.bedroom",
    "fields": { "beds": 2, "floor": 12, "domitory": 1 }
  },
  {
    "model": "domitory.bedroom",
    "fields": { "beds": 2, "floor": 10, "domitory": 2 }
  },
  {
    "model": "domitory.bedroom",
    "fields": { "beds": 5, "floor": 7, "domitory": 1 }
  },
  {
    "model": "domitory.bedroom",
    "fields": { "beds": 1, "floor": 7, "domitory": 1 }
  },
  {
    "model": "domitory.bedroom",
    "fields": { "beds": 5, "floor": 1, "domitory": 2 }
  },
  {
    "model": "domitory.bedroom",
    "fields": { "beds": 5, "floor": 11, "domitory": 2 }
  },
  {
    "model": "domitory.bedroom",
    "fields": { "beds": 4, "floor": 2, "domitory": 2 }
  },
  {
    "model": "domitory.bedroom",
    "fields": { "beds": 5, "floor": 4, "domitory": 2 }
  },
  {
    "model": "domitory.bedroom",
    "fields": { "beds": 1, "floor": 2, "domitory": 2 }
  },
  {
    "model": "domitory.bedroom",
    "fields": { "beds": 3, "floor": 2, "domitory": 1 }
  },
  {
    "model": "domitory.bedroom",
    "fields": { "beds": 3, "floor": 11, "domitory": 2 }
  },
  {
    "model": "domitory.bedroom",
    "fields": { "beds": 4, "floor": 11, "domitory": 2 }
  },
  {
    "model": "domitory.bedroom",
    "fields": { "beds": 3, "floor": 4, "domitory": 1 }
  },
  {
    "model": "domitory.bedroom",
    "fields": { "beds": 5, "floor": 10, "domitory": 1 }
  },
  {
    "model": "domitory.bedroom",
    "fields": { "beds": 1, "floor": 5, "domitory": 1 }
  },
  {
    "model": "domitory.bedroom",
    "fields": { "beds": 5, "floor": 4, "domitory": 1 }
  },
  {
    "model": "domitory.bedroom",
    "fields": { "beds": 4, "floor": 10, "domitory": 2 }
  },
  {
    "model": "domitory.bedroom",
    "fields": { "beds": 5, "floor": 2, "domitory": 1 }
  },
  {
    "model": "domitory.bedroom",
    "fields": { "beds": 1, "floor": 9, "domitory": 2 }
  },
  {
    "model": "domitory.bedroom",
    "fields": { "beds": 2, "floor": 3, "domitory": 1 }
  },
  {
    "model": "domitory.bedroom",
    "fields": { "beds": 4, "floor": 8, "domitory": 1 }
  },
  {
    "model": "domitory.bedroom",
    "fields": { "beds": 2, "floor": 2, "domitory": 2 }
  },
  {
    "model": "domitory.bedroom",
    "fields": { "beds": 3, "floor": 9, "domitory": 2 }
  },
  {
    "model": "domitory.bedroom",
    "fields": { "beds": 4, "floor": 7, "domitory": 1 }
  },
  {
    "model": "domitory.bedroom",
    "fields": { "beds": 2, "floor": 8, "domitory": 1 }
  },
  {
    "model": "domitory.bedroom",
    "fields": { "beds": 5, "floor": 10, "domitory": 1 }
  },
  {
    "model": "domitory.bedroom",
    "fields": { "beds": 2, "floor": 3, "domitory": 1 }
  },
  {
    "model": "domitory.bedroom",
    "fields": { "beds": 2, "floor": 12, "domitory": 1 }
  },
  {
    "model": "domitory.bedroom",
    "fields": { "beds": 5, "floor": 11, "domitory": 1 }
  },
  {
    "model": "domitory.bedroom",
    "fields": { "beds": 2, "floor": 1, "domitory": 2 }
  },
  {
    "model": "domitory.bedroom",
    "fields": { "beds": 1, "floor": 10, "domitory": 2 }
  },
  {
    "model": "domitory.bedroom",
    "fields": { "beds": 5, "floor": 9, "domitory": 1 }
  },
  {
    "model": "domitory.bedroom",
    "fields": { "beds": 3, "floor": 2, "domitory": 1 }
  },
  {
    "model": "domitory.bedroom",
    "fields": { "beds": 4, "floor": 3, "domitory": 1 }
  },
  {
    "model": "domitory.bedroom",
    "fields": { "beds": 4, "floor": 6, "domitory": 2 }
  },
  {
    "model": "domitory.bedroom",
    "fields": { "beds": 4, "floor": 4, "domitory": 2 }
  },
  {
    "model": "domitory.bedroom",
    "fields": { "beds": 1, "floor": 4, "domitory": 2 }
  },
  {
    "model": "domitory.bedroom",
    "fields": { "beds": 1, "floor": 7, "domitory": 1 }
  },
  {
    "model": "domitory.bedroom",
    "fields": { "beds": 2, "floor": 12, "domitory": 1 }
  },
  {
    "model": "domitory.bedroom",
    "fields": { "beds": 5, "floor": 6, "domitory": 2 }
  },
  {
    "model": "domitory.bedroom",
    "fields": { "beds": 2, "floor": 12, "domitory": 2 }
  },
  {
    "model": "domitory.bedroom",
    "fields": { "beds": 5, "floor": 1, "domitory": 2 }
  },
  {
    "model": "domitory.bedroom",
    "fields": { "beds": 3, "floor": 11, "domitory": 2 }
  },
  {
    "model": "domitory.bedroom",
    "fields": { "beds": 2, "floor": 12, "domitory": 1 }
  },
  {
    "model": "domitory.bedroom",
    "fields": { "beds": 1, "floor": 9, "domitory": 2 }
  },
  {
    "model": "domitory.bedroom",
    "fields": { "beds": 3, "floor": 11, "domitory": 1 }
  },
  {
    "model": "domitory.bedroom",
    "fields": { "beds": 2, "floor": 11, "domitory": 2 }
  },
  {
    "model": "domitory.bedroom",
    "fields": { "beds": 5, "floor": 3, "domitory": 2 }
  },
  {
    "model": "domitory.bedroom",
    "fields": { "beds": 3, "floor": 6, "domitory": 1 }
  },
  {
    "model": "domitory.bedroom",
    "fields": { "beds": 1, "floor": 2, "domitory": 1 }
  },
  {
    "model": "domitory.bedroom",
    "fields": { "beds": 3, "floor": 7, "domitory": 2 }
  },
  {
    "model": "domitory.bedroom",
    "fields": { "beds": 2, "floor": 5, "domitory": 2 }
  },
  {
    "model": "domitory.bedroom",
    "fields": { "beds": 3, "floor": 5, "domitory": 1 }
  },
  {
    "model": "domitory.bedroom",
    "fields": { "beds": 3, "floor": 11, "domitory": 2 }
  },
  {
    "model": "domitory.bedroom",
    "fields": { "beds": 1, "floor": 11, "domitory": 2 }
  },
  {
    "model": "domitory.bedroom",
    "fields": { "beds": 5, "floor": 10, "domitory": 1 }
  },
  {
    "model": "domitory.bedroom",
    "fields": { "beds": 3, "floor": 11, "domitory": 2 }
  },
  {
    "model": "domitory.bedroom",
    "fields": { "beds": 1, "floor": 5, "domitory": 2 }
  },
  {
    "model": "domitory.bedroom",
    "fields": { "beds": 5, "floor": 12, "domitory": 2 }
  },
  {
    "model": "domitory.bedroom",
    "fields": { "beds": 1, "floor": 7, "domitory": 2 }
  },
  {
    "model": "domitory.bedroom",
    "fields": { "beds": 3, "floor": 4, "domitory": 2 }
  },
  {
    "model": "domitory.bedroom",
    "fields": { "beds": 1, "floor": 7, "domitory": 1 }
  },
  {
    "model": "domitory.bedroom",
    "fields": { "beds": 2, "floor": 10, "domitory": 1 }
  },
  {
    "model": "domitory.bedroom",
    "fields": { "beds": 1, "floor": 6, "domitory": 1 }
  },
  {
    "model": "domitory.bedroom",
    "fields": { "beds": 5, "floor": 1, "domitory": 1 }
  },
  {
    "model": "domitory.bedroom",
    "fields": { "beds": 2, "floor": 1, "domitory": 1 }
  },
  {
    "model": "domitory.bedroom",
    "fields": { "beds": 1, "floor": 2, "domitory": 2 }
  },
  {
    "model": "domitory.bedroom",
    "fields": { "beds": 1, "floor": 2, "domitory": 2 }
  },
  {
    "model": "domitory.bedroom",
    "fields": { "beds": 2, "floor": 6, "domitory": 1 }
  },
  {
    "model": "domitory.bedroom",
    "fields": { "beds": 4, "floor": 3, "domitory": 1 }
  },
  {
    "model": "domitory.bedroom",
    "fields": { "beds": 3, "floor": 12, "domitory": 1 }
  },
  {
    "model": "domitory.bedroom",
    "fields": { "beds": 5, "floor": 11, "domitory": 1 }
  },
  {
    "model": "domitory.bedroom",
    "fields": { "beds": 5, "floor": 4, "domitory": 1 }
  },
  {
    "model": "domitory.bedroom",
    "fields": { "beds": 1, "floor": 5, "domitory": 2 }
  },
  {
    "model": "domitory.bedroom",
    "fields": { "beds": 1, "floor": 1, "domitory": 2 }
  },
  {
    "model": "domitory.bedroom",
    "fields": { "beds": 1, "floor": 5, "domitory": 2 }
  },
  {
    "model": "domitory.bedroom",
    "fields": { "beds": 2, "floor": 12, "domitory": 2 }
  },
  {
    "model": "domitory.bedroom",
    "fields": { "beds": 1, "floor": 4, "domitory": 2 }
  },
  {
    "model": "domitory.bedroom",
    "fields": { "beds": 5, "floor": 7, "domitory": 2 }
  },
  {
    "model": "domitory.bedroom",
    "fields": { "beds": 2, "floor": 6, "domitory": 1 }
  },
  {
    "model": "domitory.bedroom",
    "fields": { "beds": 1, "floor": 9, "domitory": 2 }
  },
  {
    "model": "domitory.bedroom",
    "fields": { "beds": 2, "floor": 11, "domitory": 1 }
  },
  {
    "model": "domitory.bedroom",
    "fields": { "beds": 2, "floor": 11, "domitory": 1 }
  },
  {
    "model": "domitory.bedroom",
    "fields": { "beds": 3, "floor": 9, "domitory": 2 }
  },
  {
    "model": "domitory.bedroom",
    "fields": { "beds": 5, "floor": 3, "domitory": 1 }
  },
  {
    "model": "domitory.bedroom",
    "fields": { "beds": 3, "floor": 7, "domitory": 2 }
  },
  {
    "model": "domitory.bedroom",
    "fields": { "beds": 2, "floor": 8, "domitory": 1 }
  },
  {
    "model": "domitory.bedroom",
    "fields": { "beds": 4, "floor": 9, "domitory": 2 }
  },
  {
    "model": "domitory.bedroom",
    "fields": { "beds": 4, "floor": 4, "domitory": 1 }
  },
  {
    "model": "domitory.bedroom",
    "fields": { "beds": 2, "floor": 7, "domitory": 1 }
  },
  {
    "model": "domitory.bedroom",
    "fields": { "beds": 4, "floor": 1, "domitory": 1 }
  },
  {
    "model": "domitory.bedroom",
    "fields": { "beds": 5, "floor": 1, "domitory": 2 }
  },
  {
    "model": "domitory.bedroom",
    "fields": { "beds": 4, "floor": 5, "domitory": 2 }
  },
  {
    "model": "domitory.bedroom",
    "fields": { "beds": 3, "floor": 9, "domitory": 1 }
  },
  {
    "model": "domitory.bedroom",
    "fields": { "beds": 2, "floor": 11, "domitory": 1 }
  },
  {
    "model": "domitory.bedroom",
    "fields": { "beds": 3, "floor": 7, "domitory": 2 }
  },
  {
    "model": "domitory.bedroom",
    "fields": { "beds": 2, "floor": 6, "domitory": 1 }
  },
  {
    "model": "domitory.bedroom",
    "fields": { "beds": 2, "floor": 12, "domitory": 2 }
  },
  {
    "model": "domitory.bedroom",
    "fields": { "beds": 5, "floor": 10, "domitory": 1 }
  },
  {
    "model": "domitory.bedroom",
    "fields": { "beds": 4, "floor": 6, "domitory": 2 }
  },
  {
    "model": "domitory.bedroom",
    "fields": { "beds": 5, "floor": 12, "domitory": 2 }
  },
  {
    "model": "domitory.bedroom",
    "fields": { "beds": 1, "floor": 3, "domitory": 1 }
  },
  {
    "model": "domitory.bedroom",
    "fields": { "beds": 2, "floor": 5, "domitory": 2 }
  },
  {
    "model": "domitory.bedroom",
    "fields": { "beds": 4, "floor": 4, "domitory": 1 }
  },
  {
    "model": "domitory.bedroom",
    "fields": { "beds": 5, "floor": 3, "domitory": 1 }
  },
  {
    "model": "domitory.bedroom",
    "fields": { "beds": 2, "floor": 5, "domitory": 1 }
  },
  {
    "model": "domitory.bedroom",
    "fields": { "beds": 2, "floor": 4, "domitory": 2 }
  },
  {
    "model": "domitory.bedroom",
    "fields": { "beds": 5, "floor": 9, "domitory": 2 }
  },
  {
    "model": "domitory.bedroom",
    "fields": { "beds": 5, "floor": 10, "domitory": 1 }
  },
  {
    "model": "domitory.bedroom",
    "fields": { "beds": 1, "floor": 9, "domitory": 2 }
  },
  {
    "model": "domitory.bedroom",
    "fields": { "beds": 1, "floor": 7, "domitory": 1 }
  },
  {
    "model": "domitory.bedroom",
    "fields": { "beds": 3, "floor": 11, "domitory": 1 }
  },
  {
    "model": "domitory.bedroom",
    "fields": { "beds": 3, "floor": 4, "domitory": 2 }
  },
  {
    "model": "domitory.bedroom",
    "fields": { "beds": 3, "floor": 7, "domitory": 2 }
  },
  {
    "model": "domitory.bedroom",
    "fields": { "beds": 1, "floor": 4, "domitory": 2 }
  },
  {
    "model": "domitory.bedroom",
    "fields": { "beds": 1, "floor": 8, "domitory": 1 }
  },
  {
    "model": "domitory.bedroom",
    "fields": { "beds": 5, "floor": 6, "domitory": 1 }
  },
  {
    "model": "domitory.bedroom",
    "fields": { "beds": 1, "floor": 5, "domitory": 1 }
  },
  {
    "model": "domitory.bedroom",
    "fields": { "beds": 4, "floor": 6, "domitory": 1 }
  },
  {
    "model": "domitory.bedroom",
    "fields": { "beds": 1, "floor": 6, "domitory": 2 }
  },
  {
    "model": "domitory.bedroom",
    "fields": { "beds": 3, "floor": 6, "domitory": 2 }
  },
  {
    "model": "domitory.bedroom",
    "fields": { "beds": 1, "floor": 11, "domitory": 2 }
  },
  {
    "model": "domitory.bedroom",
    "fields": { "beds": 4, "floor": 2, "domitory": 2 }
  },
  {
    "model": "domitory.bedroom",
    "fields": { "beds": 3, "floor": 3, "domitory": 1 }
  },
  {
    "model": "domitory.bedroom",
    "fields": { "beds": 2, "floor": 10, "domitory": 2 }
  },
  {
    "model": "domitory.bedroom",
    "fields": { "beds": 3, "floor": 4, "domitory": 2 }
  },
  {
    "model": "domitory.bedroom",
    "fields": { "beds": 5, "floor": 7, "domitory": 1 }
  },
  {
    "model": "domitory.bedroom",
    "fields": { "beds": 3, "floor": 8, "domitory": 1 }
  },
  {
    "model": "domitory.bedroom",
    "fields": { "beds": 5, "floor": 5, "domitory": 1 }
  },
  {
    "model": "domitory.bedroom",
    "fields": { "beds": 5, "floor": 6, "domitory": 1 }
  },
  {
    "model": "domitory.bedroom",
    "fields": { "beds": 2, "floor": 6, "domitory": 2 }
  },
  {
    "model": "domitory.bedroom",
    "fields": { "beds": 1, "floor": 8, "domitory": 2 }
  },
  {
    "model": "domitory.bedroom",
    "fields": { "beds": 3, "floor": 2, "domitory": 1 }
  },
  {
    "model": "domitory.bedroom",
    "fields": { "beds": 1, "floor": 1, "domitory": 2 }
  },
  {
    "model": "domitory.bedroom",
    "fields": { "beds": 5, "floor": 3, "domitory": 2 }
  },
  {
    "model": "domitory.bedroom",
    "fields": { "beds": 4, "floor": 9, "domitory": 1 }
  },
  {
    "model": "domitory.bedroom",
    "fields": { "beds": 1, "floor": 5, "domitory": 2 }
  },
  {
    "model": "domitory.bedroom",
    "fields": { "beds": 4, "floor": 8, "domitory": 2 }
  },
  {
    "model": "domitory.bedroom",
    "fields": { "beds": 5, "floor": 3, "domitory": 2 }
  },
  {
    "model": "domitory.bedroom",
    "fields": { "beds": 3, "floor": 6, "domitory": 2 }
  },
  {
    "model": "domitory.bedroom",
    "fields": { "beds": 3, "floor": 5, "domitory": 1 }
  },
  {
    "model": "domitory.bedroom",
    "fields": { "beds": 4, "floor": 10, "domitory": 2 }
  },
  {
    "model": "domitory.bedroom",
    "fields": { "beds": 2, "floor": 12, "domitory": 2 }
  },
  {
    "model": "domitory.bedroom",
    "fields": { "beds": 1, "floor": 5, "domitory": 2 }
  },
  {
    "model": "domitory.bedroom",
    "fields": { "beds": 5, "floor": 12, "domitory": 1 }
  },
  {
    "model": "domitory.bedroom",
    "fields": { "beds": 3, "floor": 2, "domitory": 2 }
  },
  {
    "model": "domitory.bedroom",
    "fields": { "beds": 4, "floor": 10, "domitory": 1 }
  },
  {
    "model": "domitory.bedroom",
    "fields": { "beds": 4, "floor": 1, "domitory": 2 }
  },
  {
    "model": "domitory.bedroom",
    "fields": { "beds": 5, "floor": 2, "domitory": 2 }
  },
  {
    "model": "domitory.bedroom",
    "fields": { "beds": 3, "floor": 3, "domitory": 1 }
  },
  {
    "model": "domitory.bedroom",
    "fields": { "beds": 1, "floor": 11, "domitory": 1 }
  },
  {
    "model": "domitory.bedroom",
    "fields": { "beds": 2, "floor": 3, "domitory": 1 }
  },
  {
    "model": "domitory.bedroom",
    "fields": { "beds": 1, "floor": 2, "domitory": 2 }
  },
  {
    "model": "domitory.bedroom",
    "fields": { "beds": 2, "floor": 9, "domitory": 1 }
  },
  {
    "model": "domitory.bedroom",
    "fields": { "beds": 5, "floor": 5, "domitory": 2 }
  },
  {
    "model": "domitory.bedroom",
    "fields": { "beds": 1, "floor": 5, "domitory": 1 }
  },
  {
    "model": "domitory.bedroom",
    "fields": { "beds": 5, "floor": 11, "domitory": 2 }
  },
  {
    "model": "domitory.bedroom",
    "fields": { "beds": 2, "floor": 3, "domitory": 2 }
  },
  {
    "model": "domitory.bedroom",
    "fields": { "beds": 3, "floor": 6, "domitory": 1 }
  },
  {
    "model": "domitory.bedroom",
    "fields": { "beds": 5, "floor": 6, "domitory": 1 }
  },
  {
    "model": "domitory.bedroom",
    "fields": { "beds": 4, "floor": 10, "domitory": 1 }
  },
  {
    "model": "domitory.bedroom",
    "fields": { "beds": 5, "floor": 6, "domitory": 1 }
  },
  {
    "model": "domitory.bedroom",
    "fields": { "beds": 4, "floor": 6, "domitory": 1 }
  },
  {
    "model": "domitory.bedroom",
    "fields": { "beds": 1, "floor": 7, "domitory": 1 }
  },
  {
    "model": "domitory.bedroom",
    "fields": { "beds": 4, "floor": 1, "domitory": 2 }
  },
  {
    "model": "domitory.bedroom",
    "fields": { "beds": 3, "floor": 1, "domitory": 1 }
  },
  {
    "model": "domitory.bedroom",
    "fields": { "beds": 1, "floor": 2, "domitory": 1 }
  },
  {
    "model": "domitory.bedroom",
    "fields": { "beds": 3, "floor": 12, "domitory": 2 }
  },
  {
    "model": "domitory.bedroom",
    "fields": { "beds": 2, "floor": 11, "domitory": 1 }
  },
  {
    "model": "domitory.bedroom",
    "fields": { "beds": 2, "floor": 8, "domitory": 1 }
  },
  {
    "model": "domitory.bedroom",
    "fields": { "beds": 4, "floor": 5, "domitory": 1 }
  },
  {
    "model": "domitory.bedroom",
    "fields": { "beds": 1, "floor": 8, "domitory": 1 }
  },
  {
    "model": "domitory.bedroom",
    "fields": { "beds": 3, "floor": 7, "domitory": 1 }
  },
  {
    "model": "domitory.bedroom",
    "fields": { "beds": 4, "floor": 10, "domitory": 1 }
  },
  {
    "model": "domitory.bedroom",
    "fields": { "beds": 5, "floor": 10, "domitory": 1 }
  },
  {
    "model": "domitory.bedroom",
    "fields": { "beds": 5, "floor": 5, "domitory": 2 }
  },
  {
    "model": "domitory.bedroom",
    "fields": { "beds": 1, "floor": 10, "domitory": 1 }
  },
  {
    "model": "domitory.bedroom",
    "fields": { "beds": 1, "floor": 1, "domitory": 1 }
  },
  {
    "model": "domitory.bedroom",
    "fields": { "beds": 1, "floor": 1, "domitory": 1 }
  },
  {
    "model": "domitory.bedroom",
    "fields": { "beds": 2, "floor": 10, "domitory": 2 }
  },
  {
    "model": "domitory.bedroom",
    "fields": { "beds": 2, "floor": 2, "domitory": 2 }
  }
]
